com\mycompany\oxgamefile\boardFrame$1.class
com\mycompany\oxgamefile\PlayerService.class
com\mycompany\oxgamefile\boardFrame.class
com\mycompany\oxgamefile\boardFrame$3.class
com\mycompany\oxgamefile\boardFrame$2.class
com\mycompany\oxgamefile\Player.class
com\mycompany\oxgamefile\Table.class
